P3 40 50 255
0 6 7 # 0,0
0 6 7 # 1,0
0 6 7 # 2,0
0 6 7 # 3,0
0 6 7 # 4,0
0 6 7 # 5,0
0 6 7 # 6,0
0 6 7 # 7,0
0 6 7 # 8,0
0 6 7 # 9,0
0 6 7 # 10,0
0 6 7 # 11,0
0 6 7 # 12,0
0 6 7 # 13,0
0 6 7 # 14,0
0 0 0 # 15,0
0 0 0 # 16,0
0 0 0 # 17,0
0 0 0 # 18,0
0 0 0 # 19,0
0 0 0 # 20,0
0 0 0 # 21,0
0 0 0 # 22,0
0 0 0 # 23,0
0 0 0 # 24,0
0 0 0 # 25,0
0 0 0 # 26,0
0 0 0 # 27,0
0 0 0 # 28,0
0 0 0 # 29,0
0 0 0 # 30,0
0 0 0 # 31,0
0 0 0 # 32,0
0 0 0 # 33,0
0 0 0 # 34,0
0 0 0 # 35,0
0 0 0 # 36,0
0 0 0 # 37,0
0 0 0 # 38,0
0 0 0 # 39,0
0 6 7 # 0,1
0 6 7 # 1,1
0 6 7 # 2,1
0 6 7 # 3,1
0 6 7 # 4,1
0 6 7 # 5,1
0 6 7 # 6,1
0 6 7 # 7,1
0 6 7 # 8,1
0 6 7 # 9,1
0 6 7 # 10,1
0 6 7 # 11,1
0 6 7 # 12,1
0 6 7 # 13,1
0 6 7 # 14,1
0 0 0 # 15,1
0 0 0 # 16,1
0 0 0 # 17,1
0 0 0 # 18,1
0 0 0 # 19,1
0 0 0 # 20,1
0 0 0 # 21,1
0 0 0 # 22,1
0 0 0 # 23,1
0 0 0 # 24,1
0 0 0 # 25,1
0 0 0 # 26,1
0 0 0 # 27,1
0 0 0 # 28,1
0 0 0 # 29,1
0 0 0 # 30,1
0 0 0 # 31,1
0 0 0 # 32,1
0 0 0 # 33,1
0 0 0 # 34,1
0 0 0 # 35,1
0 0 0 # 36,1
0 0 0 # 37,1
0 0 0 # 38,1
0 0 0 # 39,1
0 6 7 # 0,2
0 6 7 # 1,2
0 6 7 # 2,2
0 6 7 # 3,2
0 6 7 # 4,2
0 6 7 # 5,2
0 6 7 # 6,2
0 6 7 # 7,2
0 6 7 # 8,2
0 6 7 # 9,2
0 6 7 # 10,2
0 6 7 # 11,2
0 6 7 # 12,2
0 6 7 # 13,2
0 0 0 # 14,2
0 0 0 # 15,2
0 0 0 # 16,2
0 0 0 # 17,2
0 0 0 # 18,2
0 0 0 # 19,2
0 0 0 # 20,2
0 0 0 # 21,2
0 0 0 # 22,2
0 0 0 # 23,2
0 0 0 # 24,2
0 0 0 # 25,2
0 0 0 # 26,2
0 0 0 # 27,2
0 0 0 # 28,2
0 0 0 # 29,2
0 0 0 # 30,2
0 0 0 # 31,2
0 0 0 # 32,2
0 0 0 # 33,2
0 0 0 # 34,2
0 0 0 # 35,2
0 0 0 # 36,2
0 0 0 # 37,2
0 0 0 # 38,2
0 0 0 # 39,2
0 6 7 # 0,3
0 6 7 # 1,3
0 6 7 # 2,3
0 6 7 # 3,3
0 6 7 # 4,3
0 6 7 # 5,3
0 6 7 # 6,3
0 6 7 # 7,3
0 6 7 # 8,3
0 6 7 # 9,3
0 6 7 # 10,3
0 6 7 # 11,3
0 6 7 # 12,3
0 6 7 # 13,3
0 0 0 # 14,3
0 0 0 # 15,3
0 0 0 # 16,3
0 0 0 # 17,3
0 0 0 # 18,3
0 0 0 # 19,3
0 0 0 # 20,3
0 0 0 # 21,3
0 0 0 # 22,3
0 0 0 # 23,3
0 0 0 # 24,3
0 0 0 # 25,3
0 0 0 # 26,3
0 0 0 # 27,3
0 0 0 # 28,3
0 0 0 # 29,3
0 0 0 # 30,3
0 0 0 # 31,3
0 0 0 # 32,3
0 0 0 # 33,3
0 0 0 # 34,3
0 0 0 # 35,3
0 0 0 # 36,3
0 0 0 # 37,3
0 0 0 # 38,3
0 0 0 # 39,3
0 6 7 # 0,4
0 6 7 # 1,4
0 6 7 # 2,4
0 6 7 # 3,4
0 6 7 # 4,4
0 6 7 # 5,4
0 6 7 # 6,4
0 6 7 # 7,4
0 6 7 # 8,4
0 6 7 # 9,4
0 6 7 # 10,4
0 6 7 # 11,4
0 6 7 # 12,4
0 0 0 # 13,4
0 0 0 # 14,4
0 0 0 # 15,4
0 0 0 # 16,4
0 0 0 # 17,4
0 0 0 # 18,4
0 0 0 # 19,4
0 0 0 # 20,4
0 0 0 # 21,4
0 0 0 # 22,4
0 0 0 # 23,4
0 0 0 # 24,4
0 0 0 # 25,4
0 0 0 # 26,4
0 0 0 # 27,4
0 0 0 # 28,4
0 0 0 # 29,4
0 0 0 # 30,4
0 0 0 # 31,4
0 0 0 # 32,4
0 0 0 # 33,4
0 0 0 # 34,4
0 0 0 # 35,4
0 0 0 # 36,4
0 0 0 # 37,4
0 0 0 # 38,4
0 0 0 # 39,4
0 6 7 # 0,5
0 6 7 # 1,5
0 6 7 # 2,5
0 6 7 # 3,5
0 6 7 # 4,5
0 6 7 # 5,5
0 6 7 # 6,5
0 6 7 # 7,5
0 6 7 # 8,5
0 6 7 # 9,5
0 6 7 # 10,5
0 6 7 # 11,5
0 6 7 # 12,5
0 0 0 # 13,5
0 0 0 # 14,5
0 0 0 # 15,5
0 0 0 # 16,5
0 0 0 # 17,5
0 0 0 # 18,5
0 0 0 # 19,5
0 0 0 # 20,5
0 0 0 # 21,5
0 0 0 # 22,5
0 0 0 # 23,5
0 0 0 # 24,5
0 0 0 # 25,5
0 0 0 # 26,5
0 0 0 # 27,5
0 0 0 # 28,5
0 0 0 # 29,5
0 0 0 # 30,5
0 0 0 # 31,5
0 0 0 # 32,5
0 0 0 # 33,5
0 0 0 # 34,5
0 0 0 # 35,5
0 0 0 # 36,5
0 0 0 # 37,5
0 0 0 # 38,5
0 0 0 # 39,5
0 6 7 # 0,6
0 6 7 # 1,6
0 6 7 # 2,6
0 6 7 # 3,6
0 6 7 # 4,6
0 6 7 # 5,6
0 6 7 # 6,6
0 6 7 # 7,6
0 6 7 # 8,6
0 6 7 # 9,6
0 6 7 # 10,6
0 6 7 # 11,6
0 0 0 # 12,6
0 0 0 # 13,6
0 0 0 # 14,6
0 0 0 # 15,6
0 0 0 # 16,6
0 0 0 # 17,6
0 0 0 # 18,6
0 0 0 # 19,6
0 0 0 # 20,6
0 0 0 # 21,6
0 0 0 # 22,6
0 0 0 # 23,6
0 0 0 # 24,6
0 0 0 # 25,6
0 0 0 # 26,6
0 0 0 # 27,6
0 0 0 # 28,6
0 0 0 # 29,6
0 0 0 # 30,6
0 0 0 # 31,6
0 0 0 # 32,6
0 0 0 # 33,6
0 0 0 # 34,6
0 0 0 # 35,6
0 0 0 # 36,6
0 0 0 # 37,6
0 0 0 # 38,6
0 0 0 # 39,6
0 6 7 # 0,7
0 6 7 # 1,7
0 6 7 # 2,7
0 6 7 # 3,7
0 6 7 # 4,7
0 6 7 # 5,7
0 6 7 # 6,7
0 6 7 # 7,7
0 6 7 # 8,7
0 6 7 # 9,7
0 6 7 # 10,7
0 0 0 # 11,7
0 0 0 # 12,7
0 0 0 # 13,7
0 0 0 # 14,7
0 0 0 # 15,7
0 0 0 # 16,7
0 0 0 # 17,7
0 0 0 # 18,7
0 0 0 # 19,7
0 0 0 # 20,7
0 0 0 # 21,7
0 0 0 # 22,7
0 0 0 # 23,7
0 0 0 # 24,7
0 0 0 # 25,7
0 0 0 # 26,7
0 0 0 # 27,7
0 0 0 # 28,7
0 0 0 # 29,7
0 0 0 # 30,7
0 0 0 # 31,7
0 0 0 # 32,7
0 0 0 # 33,7
0 0 0 # 34,7
0 0 0 # 35,7
0 0 0 # 36,7
0 0 0 # 37,7
0 0 0 # 38,7
0 0 0 # 39,7
0 6 7 # 0,8
0 6 7 # 1,8
0 6 7 # 2,8
0 6 7 # 3,8
0 6 7 # 4,8
0 6 7 # 5,8
0 6 7 # 6,8
0 6 7 # 7,8
0 6 7 # 8,8
0 6 7 # 9,8
0 6 7 # 10,8
0 0 0 # 11,8
0 0 0 # 12,8
0 0 0 # 13,8
0 0 0 # 14,8
0 0 0 # 15,8
0 0 0 # 16,8
0 0 0 # 17,8
0 0 0 # 18,8
0 0 0 # 19,8
0 0 0 # 20,8
0 0 0 # 21,8
0 0 0 # 22,8
0 0 0 # 23,8
0 0 0 # 24,8
0 0 0 # 25,8
0 0 0 # 26,8
0 0 0 # 27,8
0 0 0 # 28,8
0 0 0 # 29,8
0 0 0 # 30,8
0 0 0 # 31,8
0 0 0 # 32,8
0 0 0 # 33,8
0 0 0 # 34,8
0 0 0 # 35,8
0 0 0 # 36,8
0 0 0 # 37,8
0 0 0 # 38,8
0 0 0 # 39,8
0 6 7 # 0,9
0 6 7 # 1,9
0 6 7 # 2,9
0 6 7 # 3,9
0 6 7 # 4,9
0 6 7 # 5,9
0 6 7 # 6,9
0 6 7 # 7,9
0 6 7 # 8,9
0 6 7 # 9,9
0 0 0 # 10,9
0 0 0 # 11,9
0 0 0 # 12,9
0 0 0 # 13,9
0 0 0 # 14,9
0 0 0 # 15,9
0 0 0 # 16,9
0 0 0 # 17,9
0 0 0 # 18,9
0 0 0 # 19,9
0 0 0 # 20,9
0 0 0 # 21,9
0 0 0 # 22,9
0 0 0 # 23,9
0 0 0 # 24,9
0 0 0 # 25,9
0 0 0 # 26,9
0 0 0 # 27,9
0 0 0 # 28,9
0 0 0 # 29,9
0 0 0 # 30,9
0 0 0 # 31,9
0 0 0 # 32,9
0 0 0 # 33,9
0 0 0 # 34,9
0 0 0 # 35,9
0 0 0 # 36,9
0 0 0 # 37,9
0 0 0 # 38,9
0 0 0 # 39,9
0 6 7 # 0,10
0 6 7 # 1,10
0 6 7 # 2,10
0 6 7 # 3,10
0 6 7 # 4,10
0 6 7 # 5,10
0 6 7 # 6,10
0 2 3 # 7,10
0 2 3 # 8,10
0 2 3 # 9,10
0 2 3 # 10,10
0 2 3 # 11,10
0 2 3 # 12,10
0 2 3 # 13,10
0 0 0 # 14,10
0 0 0 # 15,10
0 0 0 # 16,10
0 0 0 # 17,10
0 0 0 # 18,10
0 0 0 # 19,10
0 0 0 # 20,10
0 0 0 # 21,10
0 0 0 # 22,10
0 0 0 # 23,10
0 0 0 # 24,10
0 0 0 # 25,10
0 0 0 # 26,10
0 0 0 # 27,10
0 0 0 # 28,10
0 0 0 # 29,10
0 0 0 # 30,10
0 0 0 # 31,10
0 0 0 # 32,10
0 0 0 # 33,10
0 0 0 # 34,10
0 0 0 # 35,10
0 0 0 # 36,10
0 0 0 # 37,10
0 0 0 # 38,10
0 0 0 # 39,10
0 6 7 # 0,11
0 6 7 # 1,11
0 6 7 # 2,11
0 6 7 # 3,11
0 6 7 # 4,11
0 6 7 # 5,11
0 2 3 # 6,11
0 2 3 # 7,11
0 2 3 # 8,11
0 2 3 # 9,11
0 2 3 # 10,11
0 2 3 # 11,11
0 2 3 # 12,11
0 2 3 # 13,11
0 2 3 # 14,11
0 0 0 # 15,11
1 4 5 # 16,11
1 4 5 # 17,11
1 4 5 # 18,11
1 4 5 # 19,11
1 4 5 # 20,11
1 4 5 # 21,11
1 4 5 # 22,11
1 4 5 # 23,11
1 4 5 # 24,11
0 0 0 # 25,11
0 0 0 # 26,11
0 0 0 # 27,11
0 0 0 # 28,11
0 0 0 # 29,11
0 0 0 # 30,11
0 0 0 # 31,11
0 0 0 # 32,11
0 0 0 # 33,11
0 0 0 # 34,11
0 0 0 # 35,11
0 0 0 # 36,11
0 0 0 # 37,11
0 0 0 # 38,11
0 0 0 # 39,11
0 6 7 # 0,12
0 6 7 # 1,12
0 6 7 # 2,12
0 6 7 # 3,12
0 6 7 # 4,12
0 2 3 # 5,12
0 2 3 # 6,12
0 2 3 # 7,12
0 2 3 # 8,12
0 2 3 # 9,12
0 2 3 # 10,12
0 2 3 # 11,12
0 2 3 # 12,12
0 2 3 # 13,12
0 2 3 # 14,12
0 2 3 # 15,12
1 4 5 # 16,12
1 4 5 # 17,12
1 4 5 # 18,12
1 4 5 # 19,12
1 4 5 # 20,12
1 4 5 # 21,12
1 4 5 # 22,12
1 4 5 # 23,12
1 4 5 # 24,12
1 4 5 # 25,12
0 0 0 # 26,12
0 0 0 # 27,12
0 0 0 # 28,12
0 0 0 # 29,12
0 0 0 # 30,12
0 0 0 # 31,12
0 0 0 # 32,12
0 0 0 # 33,12
0 0 0 # 34,12
0 0 0 # 35,12
0 0 0 # 36,12
0 0 0 # 37,12
0 0 0 # 38,12
0 0 0 # 39,12
0 6 7 # 0,13
0 6 7 # 1,13
0 6 7 # 2,13
0 6 7 # 3,13
0 0 0 # 4,13
0 2 3 # 5,13
0 2 3 # 6,13
0 2 3 # 7,13
0 2 3 # 8,13
0 2 3 # 9,13
0 2 3 # 10,13
0 2 3 # 11,13
0 2 3 # 12,13
0 2 3 # 13,13
0 2 3 # 14,13
0 2 3 # 15,13
1 4 5 # 16,13
1 4 5 # 17,13
1 4 5 # 18,13
1 4 5 # 19,13
1 4 5 # 20,13
1 4 5 # 21,13
1 4 5 # 22,13
1 4 5 # 23,13
1 4 5 # 24,13
1 4 5 # 25,13
1 4 5 # 26,13
1 4 5 # 27,13
0 0 0 # 28,13
0 0 0 # 29,13
0 0 0 # 30,13
0 0 0 # 31,13
0 0 0 # 32,13
0 0 0 # 33,13
0 0 0 # 34,13
0 0 0 # 35,13
0 0 0 # 36,13
0 0 0 # 37,13
0 0 0 # 38,13
0 0 0 # 39,13
0 6 7 # 0,14
0 6 7 # 1,14
0 0 0 # 2,14
0 0 0 # 3,14
0 0 0 # 4,14
0 2 3 # 5,14
0 2 3 # 6,14
0 2 3 # 7,14
0 2 3 # 8,14
0 2 3 # 9,14
0 2 3 # 10,14
0 2 3 # 11,14
0 2 3 # 12,14
0 2 3 # 13,14
0 2 3 # 14,14
0 2 3 # 15,14
1 4 5 # 16,14
1 4 5 # 17,14
1 4 5 # 18,14
1 4 5 # 19,14
1 4 5 # 20,14
1 4 5 # 21,14
1 4 5 # 22,14
1 4 5 # 23,14
1 4 5 # 24,14
1 4 5 # 25,14
1 4 5 # 26,14
1 4 5 # 27,14
0 0 0 # 28,14
0 0 0 # 29,14
0 0 0 # 30,14
0 0 0 # 31,14
0 0 0 # 32,14
0 0 0 # 33,14
0 0 0 # 34,14
0 0 0 # 35,14
0 0 0 # 36,14
0 0 0 # 37,14
0 0 0 # 38,14
0 0 0 # 39,14
0 0 0 # 0,15
0 0 0 # 1,15
0 0 0 # 2,15
0 0 0 # 3,15
0 0 0 # 4,15
0 2 3 # 5,15
0 2 3 # 6,15
0 2 3 # 7,15
0 2 3 # 8,15
0 2 3 # 9,15
0 2 3 # 10,15
0 2 3 # 11,15
0 2 3 # 12,15
0 2 3 # 13,15
0 2 3 # 14,15
0 2 3 # 15,15
1 4 5 # 16,15
1 4 5 # 17,15
1 4 5 # 18,15
1 4 5 # 19,15
1 4 5 # 20,15
1 4 5 # 21,15
1 4 5 # 22,15
1 4 5 # 23,15
1 4 5 # 24,15
1 4 5 # 25,15
1 4 5 # 26,15
1 4 5 # 27,15
1 4 5 # 28,15
0 0 0 # 29,15
0 0 0 # 30,15
0 0 0 # 31,15
0 0 0 # 32,15
0 0 0 # 33,15
0 0 0 # 34,15
0 0 0 # 35,15
0 0 0 # 36,15
0 0 0 # 37,15
0 0 0 # 38,15
0 0 0 # 39,15
0 0 0 # 0,16
0 0 0 # 1,16
0 0 0 # 2,16
0 0 0 # 3,16
0 0 0 # 4,16
0 2 3 # 5,16
0 2 3 # 6,16
0 2 3 # 7,16
0 2 3 # 8,16
0 2 3 # 9,16
0 2 3 # 10,16
0 2 3 # 11,16
0 2 3 # 12,16
0 2 3 # 13,16
0 2 3 # 14,16
0 2 3 # 15,16
1 4 5 # 16,16
1 4 5 # 17,16
1 4 5 # 18,16
1 4 5 # 19,16
1 4 5 # 20,16
1 4 5 # 21,16
1 4 5 # 22,16
1 4 5 # 23,16
1 4 5 # 24,16
1 4 5 # 25,16
1 4 5 # 26,16
1 4 5 # 27,16
1 4 5 # 28,16
1 4 5 # 29,16
0 0 0 # 30,16
0 0 0 # 31,16
0 0 0 # 32,16
0 0 0 # 33,16
0 0 0 # 34,16
0 0 0 # 35,16
0 0 0 # 36,16
0 0 0 # 37,16
0 0 0 # 38,16
0 0 0 # 39,16
0 0 0 # 0,17
0 0 0 # 1,17
0 0 0 # 2,17
0 0 0 # 3,17
0 0 0 # 4,17
0 2 3 # 5,17
0 2 3 # 6,17
0 2 3 # 7,17
0 2 3 # 8,17
0 2 3 # 9,17
0 2 3 # 10,17
0 2 3 # 11,17
0 2 3 # 12,17
0 2 3 # 13,17
0 2 3 # 14,17
0 2 3 # 15,17
1 4 5 # 16,17
1 4 5 # 17,17
1 4 5 # 18,17
1 4 5 # 19,17
1 4 5 # 20,17
1 4 5 # 21,17
1 4 5 # 22,17
1 4 5 # 23,17
1 4 5 # 24,17
1 4 5 # 25,17
1 4 5 # 26,17
1 4 5 # 27,17
1 4 5 # 28,17
1 4 5 # 29,17
0 0 0 # 30,17
0 0 0 # 31,17
0 0 0 # 32,17
0 0 0 # 33,17
0 0 0 # 34,17
0 0 0 # 35,17
0 0 0 # 36,17
0 0 0 # 37,17
0 0 0 # 38,17
0 0 0 # 39,17
0 0 0 # 0,18
0 0 0 # 1,18
0 0 0 # 2,18
0 0 0 # 3,18
0 0 0 # 4,18
0 2 3 # 5,18
0 2 3 # 6,18
0 2 3 # 7,18
0 2 3 # 8,18
0 2 3 # 9,18
0 2 3 # 10,18
0 2 3 # 11,18
0 2 3 # 12,18
0 2 3 # 13,18
0 2 3 # 14,18
0 2 3 # 15,18
1 4 5 # 16,18
1 4 5 # 17,18
1 4 5 # 18,18
1 4 5 # 19,18
1 4 5 # 20,18
1 4 5 # 21,18
1 4 5 # 22,18
1 4 5 # 23,18
1 4 5 # 24,18
1 4 5 # 25,18
1 4 5 # 26,18
1 4 5 # 27,18
1 4 5 # 28,18
1 4 5 # 29,18
0 0 0 # 30,18
0 0 0 # 31,18
0 0 0 # 32,18
0 0 0 # 33,18
0 0 0 # 34,18
0 0 0 # 35,18
0 0 0 # 36,18
0 0 0 # 37,18
0 0 0 # 38,18
0 0 0 # 39,18
0 0 0 # 0,19
0 0 0 # 1,19
0 0 0 # 2,19
0 0 0 # 3,19
0 0 0 # 4,19
0 0 0 # 5,19
0 2 3 # 6,19
0 2 3 # 7,19
0 2 3 # 8,19
0 2 3 # 9,19
0 2 3 # 10,19
0 2 3 # 11,19
0 2 3 # 12,19
0 2 3 # 13,19
0 2 3 # 14,19
1 4 5 # 15,19
1 4 5 # 16,19
1 4 5 # 17,19
1 4 5 # 18,19
1 4 5 # 19,19
1 4 5 # 20,19
1 4 5 # 21,19
1 4 5 # 22,19
1 4 5 # 23,19
1 4 5 # 24,19
1 4 5 # 25,19
1 4 5 # 26,19
1 4 5 # 27,19
1 4 5 # 28,19
1 4 5 # 29,19
0 0 0 # 30,19
0 0 0 # 31,19
0 0 0 # 32,19
0 0 0 # 33,19
0 0 0 # 34,19
0 0 0 # 35,19
0 0 0 # 36,19
0 0 0 # 37,19
0 0 0 # 38,19
0 0 0 # 39,19
0 0 0 # 0,20
0 0 0 # 1,20
0 0 0 # 2,20
0 0 0 # 3,20
0 0 0 # 4,20
0 0 0 # 5,20
0 0 0 # 6,20
0 2 3 # 7,20
0 2 3 # 8,20
0 2 3 # 9,20
0 2 3 # 10,20
0 2 3 # 11,20
0 2 3 # 12,20
0 2 3 # 13,20
1 4 5 # 14,20
1 4 5 # 15,20
1 4 5 # 16,20
1 4 5 # 17,20
1 4 5 # 18,20
1 4 5 # 19,20
1 4 5 # 20,20
1 4 5 # 21,20
1 4 5 # 22,20
1 4 5 # 23,20
1 4 5 # 24,20
1 4 5 # 25,20
1 4 5 # 26,20
1 4 5 # 27,20
1 4 5 # 28,20
1 4 5 # 29,20
0 0 0 # 30,20
0 0 0 # 31,20
0 0 0 # 32,20
0 0 0 # 33,20
0 0 0 # 34,20
0 0 0 # 35,20
0 0 0 # 36,20
0 0 0 # 37,20
0 0 0 # 38,20
0 0 0 # 39,20
0 0 0 # 0,21
0 0 0 # 1,21
0 0 0 # 2,21
0 0 0 # 3,21
0 0 0 # 4,21
0 0 0 # 5,21
0 0 0 # 6,21
0 0 0 # 7,21
0 0 0 # 8,21
0 0 0 # 9,21
0 0 0 # 10,21
1 4 5 # 11,21
1 4 5 # 12,21
1 4 5 # 13,21
1 4 5 # 14,21
1 4 5 # 15,21
1 4 5 # 16,21
1 4 5 # 17,21
1 4 5 # 18,21
1 4 5 # 19,21
1 4 5 # 20,21
1 4 5 # 21,21
1 4 5 # 22,21
1 4 5 # 23,21
1 4 5 # 24,21
1 4 5 # 25,21
1 4 5 # 26,21
1 4 5 # 27,21
1 4 5 # 28,21
1 4 5 # 29,21
0 0 0 # 30,21
0 0 0 # 31,21
0 0 0 # 32,21
0 0 0 # 33,21
0 0 0 # 34,21
0 0 0 # 35,21
0 0 0 # 36,21
0 0 0 # 37,21
0 0 0 # 38,21
0 0 0 # 39,21
0 0 0 # 0,22
0 0 0 # 1,22
0 0 0 # 2,22
0 0 0 # 3,22
0 0 0 # 4,22
0 0 0 # 5,22
0 0 0 # 6,22
0 0 0 # 7,22
0 0 0 # 8,22
0 0 0 # 9,22
0 0 0 # 10,22
1 4 5 # 11,22
1 4 5 # 12,22
1 4 5 # 13,22
1 4 5 # 14,22
1 4 5 # 15,22
1 4 5 # 16,22
1 4 5 # 17,22
1 4 5 # 18,22
1 4 5 # 19,22
1 4 5 # 20,22
1 4 5 # 21,22
1 4 5 # 22,22
1 4 5 # 23,22
1 4 5 # 24,22
1 4 5 # 25,22
1 4 5 # 26,22
1 4 5 # 27,22
1 4 5 # 28,22
1 4 5 # 29,22
0 0 0 # 30,22
0 0 0 # 31,22
0 0 0 # 32,22
0 0 0 # 33,22
0 0 0 # 34,22
0 0 0 # 35,22
0 0 0 # 36,22
0 0 0 # 37,22
0 0 0 # 38,22
0 0 0 # 39,22
0 0 0 # 0,23
0 0 0 # 1,23
0 0 0 # 2,23
0 0 0 # 3,23
0 0 0 # 4,23
0 0 0 # 5,23
0 0 0 # 6,23
0 0 0 # 7,23
0 0 0 # 8,23
0 0 0 # 9,23
0 0 0 # 10,23
1 4 5 # 11,23
1 4 5 # 12,23
1 4 5 # 13,23
1 4 5 # 14,23
1 4 5 # 15,23
1 4 5 # 16,23
1 4 5 # 17,23
1 4 5 # 18,23
1 4 5 # 19,23
1 4 5 # 20,23
1 4 5 # 21,23
1 4 5 # 22,23
1 4 5 # 23,23
1 4 5 # 24,23
1 4 5 # 25,23
1 4 5 # 26,23
1 4 5 # 27,23
1 4 5 # 28,23
1 4 5 # 29,23
0 0 0 # 30,23
0 0 0 # 31,23
0 0 0 # 32,23
0 0 0 # 33,23
0 0 0 # 34,23
0 0 0 # 35,23
0 0 0 # 36,23
0 0 0 # 37,23
0 0 0 # 38,23
0 0 0 # 39,23
0 0 0 # 0,24
0 0 0 # 1,24
0 0 0 # 2,24
0 0 0 # 3,24
0 0 0 # 4,24
0 0 0 # 5,24
0 0 0 # 6,24
0 0 0 # 7,24
0 0 0 # 8,24
0 0 0 # 9,24
0 0 0 # 10,24
1 4 5 # 11,24
1 4 5 # 12,24
1 4 5 # 13,24
1 4 5 # 14,24
1 4 5 # 15,24
1 4 5 # 16,24
1 4 5 # 17,24
1 4 5 # 18,24
1 4 5 # 19,24
1 4 5 # 20,24
1 4 5 # 21,24
1 4 5 # 22,24
1 4 5 # 23,24
1 4 5 # 24,24
1 4 5 # 25,24
1 4 5 # 26,24
1 4 5 # 27,24
1 4 5 # 28,24
1 4 5 # 29,24
0 0 0 # 30,24
0 0 0 # 31,24
0 0 0 # 32,24
0 0 0 # 33,24
0 0 0 # 34,24
0 0 0 # 35,24
0 0 0 # 36,24
0 0 0 # 37,24
0 0 0 # 38,24
0 0 0 # 39,24
0 0 0 # 0,25
0 0 0 # 1,25
0 0 0 # 2,25
0 0 0 # 3,25
0 0 0 # 4,25
0 0 0 # 5,25
0 0 0 # 6,25
0 0 0 # 7,25
0 0 0 # 8,25
0 0 0 # 9,25
0 0 0 # 10,25
0 0 0 # 11,25
1 4 5 # 12,25
1 4 5 # 13,25
1 4 5 # 14,25
1 4 5 # 15,25
1 4 5 # 16,25
1 4 5 # 17,25
1 4 5 # 18,25
1 4 5 # 19,25
1 4 5 # 20,25
1 4 5 # 21,25
1 4 5 # 22,25
1 4 5 # 23,25
1 4 5 # 24,25
1 4 5 # 25,25
1 4 5 # 26,25
1 4 5 # 27,25
1 4 5 # 28,25
0 0 0 # 29,25
0 0 0 # 30,25
0 0 0 # 31,25
0 0 0 # 32,25
0 0 0 # 33,25
0 0 0 # 34,25
0 0 0 # 35,25
0 0 0 # 36,25
0 0 0 # 37,25
0 0 0 # 38,25
0 0 0 # 39,25
0 0 0 # 0,26
0 0 0 # 1,26
0 0 0 # 2,26
0 0 0 # 3,26
0 0 0 # 4,26
0 0 0 # 5,26
0 0 0 # 6,26
0 0 0 # 7,26
0 0 0 # 8,26
0 0 0 # 9,26
0 0 0 # 10,26
0 0 0 # 11,26
0 0 0 # 12,26
1 4 5 # 13,26
1 4 5 # 14,26
1 4 5 # 15,26
1 4 5 # 16,26
1 4 5 # 17,26
1 4 5 # 18,26
1 4 5 # 19,26
1 4 5 # 20,26
1 4 5 # 21,26
1 4 5 # 22,26
1 4 5 # 23,26
1 4 5 # 24,26
1 4 5 # 25,26
1 4 5 # 26,26
1 4 5 # 27,26
0 0 0 # 28,26
0 0 0 # 29,26
0 0 0 # 30,26
0 0 0 # 31,26
0 0 0 # 32,26
0 0 0 # 33,26
0 0 0 # 34,26
0 0 0 # 35,26
0 0 0 # 36,26
0 0 0 # 37,26
0 0 0 # 38,26
0 0 0 # 39,26
0 0 0 # 0,27
0 0 0 # 1,27
0 0 0 # 2,27
0 0 0 # 3,27
0 0 0 # 4,27
0 0 0 # 5,27
0 0 0 # 6,27
0 0 0 # 7,27
0 0 0 # 8,27
0 0 0 # 9,27
0 0 0 # 10,27
0 0 0 # 11,27
0 0 0 # 12,27
1 4 5 # 13,27
1 4 5 # 14,27
1 4 5 # 15,27
1 4 5 # 16,27
1 4 5 # 17,27
1 4 5 # 18,27
1 4 5 # 19,27
1 4 5 # 20,27
1 4 5 # 21,27
1 4 5 # 22,27
1 4 5 # 23,27
1 4 5 # 24,27
1 4 5 # 25,27
1 4 5 # 26,27
1 4 5 # 27,27
0 0 0 # 28,27
0 0 0 # 29,27
0 0 0 # 30,27
0 0 0 # 31,27
0 0 0 # 32,27
0 0 0 # 33,27
0 0 0 # 34,27
0 0 0 # 35,27
0 0 0 # 36,27
0 0 0 # 37,27
0 0 0 # 38,27
0 0 0 # 39,27
0 0 0 # 0,28
0 0 0 # 1,28
0 0 0 # 2,28
0 0 0 # 3,28
0 0 0 # 4,28
0 0 0 # 5,28
0 0 0 # 6,28
0 0 0 # 7,28
0 0 0 # 8,28
0 0 0 # 9,28
0 0 0 # 10,28
0 0 0 # 11,28
0 0 0 # 12,28
0 0 0 # 13,28
0 0 0 # 14,28
1 4 5 # 15,28
1 4 5 # 16,28
1 4 5 # 17,28
1 4 5 # 18,28
1 4 5 # 19,28
1 4 5 # 20,28
1 4 5 # 21,28
1 4 5 # 22,28
1 4 5 # 23,28
1 4 5 # 24,28
1 4 5 # 25,28
0 0 0 # 26,28
0 0 0 # 27,28
0 0 0 # 28,28
0 0 0 # 29,28
0 0 0 # 30,28
0 0 0 # 31,28
0 0 0 # 32,28
0 0 0 # 33,28
0 0 0 # 34,28
0 0 0 # 35,28
0 0 0 # 36,28
0 0 0 # 37,28
0 0 0 # 38,28
0 0 0 # 39,28
0 0 0 # 0,29
0 0 0 # 1,29
0 0 0 # 2,29
0 0 0 # 3,29
0 0 0 # 4,29
0 0 0 # 5,29
0 0 0 # 6,29
0 0 0 # 7,29
0 0 0 # 8,29
0 0 0 # 9,29
0 0 0 # 10,29
0 0 0 # 11,29
0 0 0 # 12,29
0 0 0 # 13,29
0 0 0 # 14,29
0 0 0 # 15,29
1 4 5 # 16,29
1 4 5 # 17,29
1 4 5 # 18,29
1 4 5 # 19,29
1 4 5 # 20,29
1 4 5 # 21,29
1 4 5 # 22,29
1 4 5 # 23,29
1 4 5 # 24,29
0 0 0 # 25,29
0 0 0 # 26,29
0 0 0 # 27,29
0 0 0 # 28,29
0 0 0 # 29,29
0 0 0 # 30,29
0 0 0 # 31,29
0 0 0 # 32,29
0 0 0 # 33,29
0 0 0 # 34,29
0 0 0 # 35,29
0 0 0 # 36,29
0 0 0 # 37,29
0 0 0 # 38,29
0 0 0 # 39,29
0 0 0 # 0,30
0 0 0 # 1,30
0 0 0 # 2,30
0 0 0 # 3,30
0 0 0 # 4,30
0 0 0 # 5,30
0 0 0 # 6,30
0 0 0 # 7,30
0 0 0 # 8,30
0 0 0 # 9,30
0 0 0 # 10,30
0 0 0 # 11,30
0 0 0 # 12,30
0 0 0 # 13,30
0 0 0 # 14,30
0 0 0 # 15,30
0 0 0 # 16,30
0 0 0 # 17,30
0 0 0 # 18,30
0 0 0 # 19,30
0 0 0 # 20,30
0 0 0 # 21,30
0 0 0 # 22,30
0 0 0 # 23,30
0 0 0 # 24,30
0 0 0 # 25,30
0 0 0 # 26,30
0 0 0 # 27,30
0 0 0 # 28,30
0 0 0 # 29,30
0 0 0 # 30,30
0 0 0 # 31,30
0 0 0 # 32,30
0 0 0 # 33,30
0 0 0 # 34,30
0 0 0 # 35,30
0 0 0 # 36,30
0 0 0 # 37,30
0 0 0 # 38,30
0 0 0 # 39,30
0 0 0 # 0,31
0 0 0 # 1,31
0 0 0 # 2,31
0 0 0 # 3,31
0 0 0 # 4,31
0 0 0 # 5,31
0 0 0 # 6,31
0 0 0 # 7,31
0 0 0 # 8,31
0 0 0 # 9,31
0 0 0 # 10,31
0 0 0 # 11,31
0 0 0 # 12,31
0 0 0 # 13,31
0 0 0 # 14,31
0 0 0 # 15,31
0 0 0 # 16,31
0 0 0 # 17,31
0 0 0 # 18,31
0 0 0 # 19,31
0 0 0 # 20,31
0 0 0 # 21,31
0 0 0 # 22,31
0 0 0 # 23,31
0 0 0 # 24,31
0 0 0 # 25,31
0 0 0 # 26,31
0 0 0 # 27,31
0 0 0 # 28,31
0 0 0 # 29,31
0 0 0 # 30,31
0 0 0 # 31,31
0 0 0 # 32,31
0 0 0 # 33,31
0 0 0 # 34,31
0 0 0 # 35,31
0 0 0 # 36,31
0 0 0 # 37,31
0 0 0 # 38,31
0 0 0 # 39,31
0 0 0 # 0,32
0 0 0 # 1,32
0 0 0 # 2,32
0 0 0 # 3,32
0 0 0 # 4,32
0 0 0 # 5,32
0 0 0 # 6,32
0 0 0 # 7,32
0 0 0 # 8,32
0 0 0 # 9,32
0 0 0 # 10,32
0 0 0 # 11,32
0 0 0 # 12,32
0 0 0 # 13,32
0 0 0 # 14,32
0 0 0 # 15,32
0 0 0 # 16,32
0 0 0 # 17,32
0 0 0 # 18,32
0 0 0 # 19,32
0 0 0 # 20,32
0 0 0 # 21,32
0 0 0 # 22,32
0 0 0 # 23,32
0 0 0 # 24,32
0 0 0 # 25,32
0 0 0 # 26,32
0 0 0 # 27,32
0 0 0 # 28,32
0 0 0 # 29,32
0 0 0 # 30,32
0 0 0 # 31,32
0 0 0 # 32,32
0 0 0 # 33,32
0 0 0 # 34,32
0 0 0 # 35,32
0 0 0 # 36,32
0 0 0 # 37,32
0 0 0 # 38,32
0 0 0 # 39,32
0 0 0 # 0,33
0 0 0 # 1,33
0 0 0 # 2,33
0 0 0 # 3,33
0 0 0 # 4,33
0 0 0 # 5,33
0 0 0 # 6,33
0 0 0 # 7,33
0 0 0 # 8,33
0 0 0 # 9,33
0 0 0 # 10,33
0 0 0 # 11,33
0 0 0 # 12,33
0 0 0 # 13,33
0 0 0 # 14,33
0 0 0 # 15,33
0 0 0 # 16,33
0 0 0 # 17,33
0 0 0 # 18,33
0 0 0 # 19,33
0 0 0 # 20,33
0 0 0 # 21,33
0 0 0 # 22,33
0 0 0 # 23,33
0 0 0 # 24,33
0 0 0 # 25,33
0 0 0 # 26,33
0 0 0 # 27,33
0 0 0 # 28,33
0 0 0 # 29,33
0 0 0 # 30,33
0 0 0 # 31,33
0 0 0 # 32,33
0 0 0 # 33,33
0 0 0 # 34,33
0 0 0 # 35,33
0 0 0 # 36,33
0 0 0 # 37,33
0 0 0 # 38,33
0 0 0 # 39,33
0 0 0 # 0,34
0 0 0 # 1,34
0 0 0 # 2,34
0 0 0 # 3,34
0 0 0 # 4,34
0 0 0 # 5,34
0 0 0 # 6,34
0 0 0 # 7,34
0 0 0 # 8,34
0 0 0 # 9,34
0 0 0 # 10,34
0 0 0 # 11,34
0 0 0 # 12,34
0 0 0 # 13,34
0 0 0 # 14,34
0 0 0 # 15,34
0 0 0 # 16,34
0 0 0 # 17,34
0 0 0 # 18,34
0 0 0 # 19,34
0 0 0 # 20,34
0 0 0 # 21,34
0 0 0 # 22,34
0 0 0 # 23,34
0 0 0 # 24,34
0 0 0 # 25,34
0 0 0 # 26,34
0 0 0 # 27,34
0 0 0 # 28,34
0 0 0 # 29,34
0 0 0 # 30,34
0 0 0 # 31,34
0 0 0 # 32,34
0 0 0 # 33,34
0 0 0 # 34,34
0 0 0 # 35,34
0 0 0 # 36,34
0 0 0 # 37,34
0 0 0 # 38,34
0 0 0 # 39,34
0 0 0 # 0,35
0 0 0 # 1,35
0 0 0 # 2,35
0 0 0 # 3,35
0 0 0 # 4,35
0 0 0 # 5,35
0 0 0 # 6,35
0 0 0 # 7,35
0 0 0 # 8,35
0 0 0 # 9,35
0 0 0 # 10,35
0 0 0 # 11,35
0 0 0 # 12,35
0 0 0 # 13,35
0 0 0 # 14,35
0 0 0 # 15,35
0 0 0 # 16,35
0 0 0 # 17,35
0 0 0 # 18,35
0 0 0 # 19,35
0 0 0 # 20,35
0 0 0 # 21,35
0 0 0 # 22,35
0 0 0 # 23,35
0 0 0 # 24,35
0 0 0 # 25,35
0 0 0 # 26,35
0 0 0 # 27,35
0 0 0 # 28,35
0 0 0 # 29,35
0 0 0 # 30,35
0 0 0 # 31,35
0 0 0 # 32,35
0 0 0 # 33,35
0 0 0 # 34,35
0 0 0 # 35,35
0 0 0 # 36,35
0 0 0 # 37,35
0 0 0 # 38,35
0 0 0 # 39,35
0 0 0 # 0,36
0 0 0 # 1,36
0 0 0 # 2,36
0 0 0 # 3,36
0 0 0 # 4,36
0 0 0 # 5,36
0 0 0 # 6,36
0 0 0 # 7,36
0 0 0 # 8,36
0 0 0 # 9,36
0 0 0 # 10,36
0 0 0 # 11,36
0 0 0 # 12,36
0 0 0 # 13,36
0 0 0 # 14,36
0 0 0 # 15,36
0 0 0 # 16,36
0 0 0 # 17,36
0 0 0 # 18,36
0 0 0 # 19,36
0 0 0 # 20,36
0 0 0 # 21,36
0 0 0 # 22,36
0 0 0 # 23,36
0 0 0 # 24,36
0 0 0 # 25,36
0 0 0 # 26,36
0 0 0 # 27,36
0 0 0 # 28,36
0 0 0 # 29,36
0 0 0 # 30,36
0 0 0 # 31,36
0 0 0 # 32,36
0 0 0 # 33,36
0 0 0 # 34,36
0 0 0 # 35,36
0 0 0 # 36,36
0 0 0 # 37,36
0 0 0 # 38,36
0 0 0 # 39,36
0 0 0 # 0,37
0 0 0 # 1,37
0 0 0 # 2,37
0 0 0 # 3,37
0 0 0 # 4,37
0 0 0 # 5,37
0 0 0 # 6,37
0 0 0 # 7,37
0 0 0 # 8,37
0 0 0 # 9,37
0 0 0 # 10,37
0 0 0 # 11,37
0 0 0 # 12,37
0 0 0 # 13,37
0 0 0 # 14,37
0 0 0 # 15,37
0 0 0 # 16,37
0 0 0 # 17,37
0 0 0 # 18,37
0 0 0 # 19,37
0 0 0 # 20,37
0 0 0 # 21,37
0 0 0 # 22,37
0 0 0 # 23,37
0 0 0 # 24,37
0 0 0 # 25,37
0 0 0 # 26,37
0 0 0 # 27,37
0 0 0 # 28,37
0 0 0 # 29,37
0 0 0 # 30,37
0 0 0 # 31,37
0 0 0 # 32,37
0 0 0 # 33,37
0 0 0 # 34,37
0 0 0 # 35,37
0 0 0 # 36,37
0 0 0 # 37,37
0 0 0 # 38,37
0 0 0 # 39,37
0 0 0 # 0,38
0 0 0 # 1,38
0 0 0 # 2,38
0 0 0 # 3,38
0 0 0 # 4,38
0 0 0 # 5,38
0 0 0 # 6,38
0 0 0 # 7,38
0 0 0 # 8,38
0 0 0 # 9,38
0 0 0 # 10,38
0 0 0 # 11,38
0 0 0 # 12,38
0 0 0 # 13,38
0 0 0 # 14,38
0 0 0 # 15,38
0 0 0 # 16,38
0 0 0 # 17,38
0 0 0 # 18,38
0 0 0 # 19,38
0 0 0 # 20,38
0 0 0 # 21,38
0 0 0 # 22,38
0 0 0 # 23,38
0 0 0 # 24,38
0 0 0 # 25,38
0 0 0 # 26,38
0 0 0 # 27,38
0 0 0 # 28,38
0 0 0 # 29,38
0 0 0 # 30,38
0 0 0 # 31,38
0 0 0 # 32,38
0 0 0 # 33,38
0 0 0 # 34,38
0 0 0 # 35,38
0 0 0 # 36,38
0 0 0 # 37,38
0 0 0 # 38,38
0 0 0 # 39,38
0 0 0 # 0,39
0 0 0 # 1,39
0 0 0 # 2,39
0 0 0 # 3,39
0 0 0 # 4,39
0 0 0 # 5,39
0 0 0 # 6,39
0 0 0 # 7,39
0 0 0 # 8,39
0 0 0 # 9,39
0 0 0 # 10,39
0 0 0 # 11,39
0 0 0 # 12,39
0 0 0 # 13,39
0 0 0 # 14,39
0 0 0 # 15,39
0 0 0 # 16,39
0 0 0 # 17,39
0 0 0 # 18,39
0 0 0 # 19,39
0 0 0 # 20,39
0 0 0 # 21,39
0 0 0 # 22,39
0 0 0 # 23,39
0 0 0 # 24,39
0 0 0 # 25,39
0 0 0 # 26,39
0 0 0 # 27,39
0 0 0 # 28,39
0 0 0 # 29,39
0 0 0 # 30,39
0 0 0 # 31,39
0 0 0 # 32,39
0 0 0 # 33,39
0 0 0 # 34,39
0 0 0 # 35,39
0 0 0 # 36,39
0 0 0 # 37,39
0 0 0 # 38,39
0 0 0 # 39,39
0 0 0 # 0,40
0 0 0 # 1,40
0 0 0 # 2,40
0 0 0 # 3,40
0 0 0 # 4,40
0 0 0 # 5,40
0 0 0 # 6,40
0 0 0 # 7,40
0 0 0 # 8,40
0 0 0 # 9,40
0 0 0 # 10,40
0 0 0 # 11,40
0 0 0 # 12,40
0 0 0 # 13,40
0 0 0 # 14,40
0 0 0 # 15,40
0 0 0 # 16,40
0 0 0 # 17,40
0 0 0 # 18,40
0 0 0 # 19,40
0 0 0 # 20,40
0 0 0 # 21,40
0 0 0 # 22,40
0 0 0 # 23,40
0 0 0 # 24,40
0 0 0 # 25,40
0 0 0 # 26,40
0 0 0 # 27,40
0 0 0 # 28,40
0 0 0 # 29,40
0 0 0 # 30,40
0 0 0 # 31,40
0 0 0 # 32,40
0 0 0 # 33,40
0 0 0 # 34,40
0 0 0 # 35,40
0 0 0 # 36,40
0 0 0 # 37,40
0 0 0 # 38,40
0 0 0 # 39,40
0 0 0 # 0,41
0 0 0 # 1,41
0 0 0 # 2,41
0 0 0 # 3,41
0 0 0 # 4,41
0 0 0 # 5,41
0 0 0 # 6,41
0 0 0 # 7,41
0 0 0 # 8,41
0 0 0 # 9,41
0 0 0 # 10,41
0 0 0 # 11,41
0 0 0 # 12,41
0 0 0 # 13,41
0 0 0 # 14,41
0 0 0 # 15,41
0 0 0 # 16,41
0 0 0 # 17,41
0 0 0 # 18,41
0 0 0 # 19,41
0 0 0 # 20,41
0 0 0 # 21,41
0 0 0 # 22,41
0 0 0 # 23,41
0 0 0 # 24,41
0 0 0 # 25,41
0 0 0 # 26,41
0 0 0 # 27,41
0 0 0 # 28,41
0 0 0 # 29,41
0 0 0 # 30,41
0 0 0 # 31,41
0 0 0 # 32,41
0 0 0 # 33,41
0 0 0 # 34,41
0 0 0 # 35,41
0 0 0 # 36,41
0 0 0 # 37,41
0 0 0 # 38,41
0 0 0 # 39,41
0 0 0 # 0,42
0 0 0 # 1,42
0 0 0 # 2,42
0 0 0 # 3,42
0 0 0 # 4,42
0 0 0 # 5,42
0 0 0 # 6,42
0 0 0 # 7,42
0 0 0 # 8,42
0 0 0 # 9,42
0 0 0 # 10,42
0 0 0 # 11,42
0 0 0 # 12,42
0 0 0 # 13,42
0 0 0 # 14,42
0 0 0 # 15,42
0 0 0 # 16,42
0 0 0 # 17,42
0 0 0 # 18,42
0 0 0 # 19,42
0 0 0 # 20,42
0 0 0 # 21,42
0 0 0 # 22,42
0 0 0 # 23,42
0 0 0 # 24,42
0 0 0 # 25,42
0 0 0 # 26,42
0 0 0 # 27,42
0 0 0 # 28,42
0 0 0 # 29,42
0 0 0 # 30,42
0 0 0 # 31,42
0 0 0 # 32,42
0 0 0 # 33,42
0 0 0 # 34,42
0 0 0 # 35,42
0 0 0 # 36,42
0 0 0 # 37,42
0 0 0 # 38,42
0 0 0 # 39,42
0 0 0 # 0,43
0 0 0 # 1,43
0 0 0 # 2,43
0 0 0 # 3,43
0 0 0 # 4,43
0 0 0 # 5,43
0 0 0 # 6,43
0 0 0 # 7,43
0 0 0 # 8,43
0 0 0 # 9,43
0 0 0 # 10,43
0 0 0 # 11,43
0 0 0 # 12,43
0 0 0 # 13,43
0 0 0 # 14,43
0 0 0 # 15,43
0 0 0 # 16,43
0 0 0 # 17,43
0 0 0 # 18,43
0 0 0 # 19,43
0 0 0 # 20,43
0 0 0 # 21,43
0 0 0 # 22,43
0 0 0 # 23,43
0 0 0 # 24,43
0 0 0 # 25,43
0 0 0 # 26,43
0 0 0 # 27,43
0 0 0 # 28,43
0 0 0 # 29,43
0 0 0 # 30,43
0 0 0 # 31,43
0 0 0 # 32,43
0 0 0 # 33,43
0 0 0 # 34,43
0 0 0 # 35,43
0 0 0 # 36,43
0 0 0 # 37,43
0 0 0 # 38,43
0 0 0 # 39,43
0 0 0 # 0,44
0 0 0 # 1,44
0 0 0 # 2,44
0 0 0 # 3,44
0 0 0 # 4,44
0 0 0 # 5,44
0 0 0 # 6,44
0 0 0 # 7,44
0 0 0 # 8,44
0 0 0 # 9,44
0 0 0 # 10,44
0 0 0 # 11,44
0 0 0 # 12,44
0 0 0 # 13,44
0 0 0 # 14,44
0 0 0 # 15,44
0 0 0 # 16,44
0 0 0 # 17,44
0 0 0 # 18,44
0 0 0 # 19,44
0 0 0 # 20,44
0 0 0 # 21,44
0 0 0 # 22,44
0 0 0 # 23,44
0 0 0 # 24,44
0 0 0 # 25,44
0 0 0 # 26,44
0 0 0 # 27,44
0 0 0 # 28,44
0 0 0 # 29,44
0 0 0 # 30,44
0 0 0 # 31,44
0 0 0 # 32,44
0 0 0 # 33,44
0 0 0 # 34,44
0 0 0 # 35,44
0 0 0 # 36,44
0 0 0 # 37,44
0 0 0 # 38,44
0 0 0 # 39,44
0 0 0 # 0,45
0 0 0 # 1,45
0 0 0 # 2,45
0 0 0 # 3,45
0 0 0 # 4,45
0 0 0 # 5,45
0 0 0 # 6,45
0 0 0 # 7,45
0 0 0 # 8,45
0 0 0 # 9,45
0 0 0 # 10,45
0 0 0 # 11,45
0 0 0 # 12,45
0 0 0 # 13,45
0 0 0 # 14,45
0 0 0 # 15,45
0 0 0 # 16,45
0 0 0 # 17,45
0 0 0 # 18,45
0 0 0 # 19,45
0 0 0 # 20,45
0 0 0 # 21,45
0 0 0 # 22,45
0 0 0 # 23,45
0 0 0 # 24,45
0 0 0 # 25,45
0 0 0 # 26,45
0 0 0 # 27,45
0 0 0 # 28,45
0 0 0 # 29,45
0 0 0 # 30,45
0 0 0 # 31,45
0 0 0 # 32,45
0 0 0 # 33,45
0 0 0 # 34,45
0 0 0 # 35,45
0 0 0 # 36,45
0 0 0 # 37,45
0 0 0 # 38,45
0 0 0 # 39,45
0 0 0 # 0,46
0 0 0 # 1,46
0 0 0 # 2,46
0 0 0 # 3,46
0 0 0 # 4,46
0 0 0 # 5,46
0 0 0 # 6,46
0 0 0 # 7,46
0 0 0 # 8,46
0 0 0 # 9,46
0 0 0 # 10,46
0 0 0 # 11,46
0 0 0 # 12,46
0 0 0 # 13,46
0 0 0 # 14,46
0 0 0 # 15,46
0 0 0 # 16,46
0 0 0 # 17,46
0 0 0 # 18,46
0 0 0 # 19,46
0 0 0 # 20,46
0 0 0 # 21,46
0 0 0 # 22,46
0 0 0 # 23,46
0 0 0 # 24,46
0 0 0 # 25,46
0 0 0 # 26,46
0 0 0 # 27,46
0 0 0 # 28,46
0 0 0 # 29,46
0 0 0 # 30,46
0 0 0 # 31,46
0 0 0 # 32,46
0 0 0 # 33,46
0 0 0 # 34,46
0 0 0 # 35,46
0 0 0 # 36,46
0 0 0 # 37,46
0 0 0 # 38,46
0 0 0 # 39,46
0 0 0 # 0,47
0 0 0 # 1,47
0 0 0 # 2,47
0 0 0 # 3,47
0 0 0 # 4,47
0 0 0 # 5,47
0 0 0 # 6,47
0 0 0 # 7,47
0 0 0 # 8,47
0 0 0 # 9,47
0 0 0 # 10,47
0 0 0 # 11,47
0 0 0 # 12,47
0 0 0 # 13,47
0 0 0 # 14,47
0 0 0 # 15,47
0 0 0 # 16,47
0 0 0 # 17,47
0 0 0 # 18,47
0 0 0 # 19,47
0 0 0 # 20,47
0 0 0 # 21,47
0 0 0 # 22,47
0 0 0 # 23,47
0 0 0 # 24,47
0 0 0 # 25,47
0 0 0 # 26,47
0 0 0 # 27,47
0 0 0 # 28,47
0 0 0 # 29,47
0 0 0 # 30,47
0 0 0 # 31,47
0 0 0 # 32,47
0 0 0 # 33,47
0 0 0 # 34,47
0 0 0 # 35,47
0 0 0 # 36,47
0 0 0 # 37,47
0 0 0 # 38,47
0 0 0 # 39,47
0 0 0 # 0,48
0 0 0 # 1,48
0 0 0 # 2,48
0 0 0 # 3,48
0 0 0 # 4,48
0 0 0 # 5,48
0 0 0 # 6,48
0 0 0 # 7,48
0 0 0 # 8,48
0 0 0 # 9,48
0 0 0 # 10,48
0 0 0 # 11,48
0 0 0 # 12,48
0 0 0 # 13,48
0 0 0 # 14,48
0 0 0 # 15,48
0 0 0 # 16,48
0 0 0 # 17,48
0 0 0 # 18,48
0 0 0 # 19,48
0 0 0 # 20,48
0 0 0 # 21,48
0 0 0 # 22,48
0 0 0 # 23,48
0 0 0 # 24,48
0 0 0 # 25,48
0 0 0 # 26,48
0 0 0 # 27,48
0 0 0 # 28,48
0 0 0 # 29,48
0 0 0 # 30,48
0 0 0 # 31,48
0 0 0 # 32,48
0 0 0 # 33,48
0 0 0 # 34,48
0 0 0 # 35,48
0 0 0 # 36,48
0 0 0 # 37,48
0 0 0 # 38,48
0 0 0 # 39,48
0 0 0 # 0,49
0 0 0 # 1,49
0 0 0 # 2,49
0 0 0 # 3,49
0 0 0 # 4,49
0 0 0 # 5,49
0 0 0 # 6,49
0 0 0 # 7,49
0 0 0 # 8,49
0 0 0 # 9,49
0 0 0 # 10,49
0 0 0 # 11,49
0 0 0 # 12,49
0 0 0 # 13,49
0 0 0 # 14,49
0 0 0 # 15,49
0 0 0 # 16,49
0 0 0 # 17,49
0 0 0 # 18,49
0 0 0 # 19,49
0 0 0 # 20,49
0 0 0 # 21,49
0 0 0 # 22,49
0 0 0 # 23,49
0 0 0 # 24,49
0 0 0 # 25,49
0 0 0 # 26,49
0 0 0 # 27,49
0 0 0 # 28,49
0 0 0 # 29,49
0 0 0 # 30,49
0 0 0 # 31,49
0 0 0 # 32,49
0 0 0 # 33,49
0 0 0 # 34,49
0 0 0 # 35,49
0 0 0 # 36,49
0 0 0 # 37,49
0 0 0 # 38,49
0 0 0 # 39,49
